waves/sim_radix2_softmax.vcd
$version Generated by VerilatedVcd $end
$date Wed May  7 19:14:50 2025 $end
$timescale 1s $end

 $scope module radix2_softmax $end
  $var wire  1 -" Clock $end
  $var wire 32 0" Datain [31:0] $end
  $var wire 32 2" Dataout [31:0] $end
  $var wire  1 3" Dataout_vld $end
  $var wire  3 1" N [2:0] $end
  $var wire  1 ." Reset $end
  $var wire  1 /" Start $end
  $scope module radix2_softmax $end
   $var wire 32 / Acc [31:0] $end
   $var wire 32 7" Acc_float [31:0] $end
   $var wire 32 6" Acc_shifted [31:0] $end
   $var wire 32 1 Acc_w [31:0] $end
   $var wire  1 ? Ack_add1 $end
   $var wire  1 @ Ack_add2 $end
   $var wire  1 A Ack_add3 $end
   $var wire  1 B Ack_div1 $end
   $var wire  1 C Ack_div2 $end
   $var wire  1 D Ack_div3 $end
   $var wire  4 E Ack_div_a [3:0] $end
   $var wire  4 F Ack_div_b [3:0] $end
   $var wire 32 0 Arg [31:0] $end
   $var wire 32 4" BITWIDTH [31:0] $end
   $var wire  3 I C [2:0] $end
   $var wire  3 J C_add [2:0] $end
   $var wire  1 -" Clock $end
   $var wire  3 H Counter [2:0] $end
   $var wire 32 0" Datain [31:0] $end
   $var wire 32 2" Dataout [31:0] $end
   $var wire  1 3" Dataout_vld $end
   $var wire 32 ' DivBuffer[0] [31:0] $end
   $var wire 32 ( DivBuffer[1] [31:0] $end
   $var wire 32 ) DivBuffer[2] [31:0] $end
   $var wire 32 * DivBuffer[3] [31:0] $end
   $var wire  4 2 EXP_Start [3:0] $end
   $var wire  4 ; EXP_out_vld [3:0] $end
   $var wire 32 5" INPUTMAX [31:0] $end
   $var wire 32 # InputBuffer[0] [31:0] $end
   $var wire 32 $ InputBuffer[1] [31:0] $end
   $var wire 32 % InputBuffer[2] [31:0] $end
   $var wire 32 & InputBuffer[3] [31:0] $end
   $var wire 32 3 InputBuffer_w[0] [31:0] $end
   $var wire 32 4 InputBuffer_w[1] [31:0] $end
   $var wire 32 5 InputBuffer_w[2] [31:0] $end
   $var wire 32 6 InputBuffer_w[3] [31:0] $end
   $var wire  3 1" N [2:0] $end
   $var wire  3 K NextState [2:0] $end
   $var wire 32 + OutputBuffer[0] [31:0] $end
   $var wire 32 , OutputBuffer[1] [31:0] $end
   $var wire 32 - OutputBuffer[2] [31:0] $end
   $var wire 32 . OutputBuffer[3] [31:0] $end
   $var wire 32 7 OutputBuffer_w[0] [31:0] $end
   $var wire 32 8 OutputBuffer_w[1] [31:0] $end
   $var wire 32 9 OutputBuffer_w[2] [31:0] $end
   $var wire 32 : OutputBuffer_w[3] [31:0] $end
   $var wire  1 ." Reset $end
   $var wire  1 /" Start $end
   $var wire  1 < Str_Add_a $end
   $var wire  1 = Str_Add_b $end
   $var wire  1 > Str_Add_z $end
   $var wire  4 G div_z_strb [3:0] $end
   $scope module add $end
    $var wire 32 M a [31:0] $end
    $var wire 10 S a_e [9:0] $end
    $var wire 27 P a_m [26:0] $end
    $var wire  1 V a_s $end
    $var wire  4 =" add_0 [3:0] $end
    $var wire  4 >" add_1 [3:0] $end
    $var wire  4 <" align [3:0] $end
    $var wire 32 N b [31:0] $end
    $var wire 10 T b_e [9:0] $end
    $var wire 27 Q b_m [26:0] $end
    $var wire  1 W b_s $end
    $var wire  1 -" clk $end
    $var wire  4 8" get_a [3:0] $end
    $var wire  4 9" get_b [3:0] $end
    $var wire  1 Y guard $end
    $var wire 32 0 input_a [31:0] $end
    $var wire  1 ? input_a_ack $end
    $var wire  1 < input_a_strb $end
    $var wire 32 / input_b [31:0] $end
    $var wire  1 @ input_b_ack $end
    $var wire  1 = input_b_strb $end
    $var wire  4 ?" normalise_1 [3:0] $end
    $var wire  4 @" normalise_2 [3:0] $end
    $var wire 32 1 output_z [31:0] $end
    $var wire  1 > output_z_ack $end
    $var wire  1 A output_z_strb $end
    $var wire  4 B" pack [3:0] $end
    $var wire  4 C" put_z [3:0] $end
    $var wire  4 A" round [3:0] $end
    $var wire  1 Z round_bit $end
    $var wire  1 ." rst $end
    $var wire  1 ? s_input_a_ack $end
    $var wire  1 @ s_input_b_ack $end
    $var wire  1 A s_output_z_stb $end
    $var wire  4 ;" special_cases [3:0] $end
    $var wire  4 L state [3:0] $end
    $var wire  1 [ sticky $end
    $var wire 28 \ sum [27:0] $end
    $var wire  4 :" unpack [3:0] $end
    $var wire 32 O z [31:0] $end
    $var wire 10 U z_e [9:0] $end
    $var wire 24 R z_m [23:0] $end
    $var wire  1 X z_s $end
   $upscope $end
   $scope module genblk1[0] $end
    $scope module shifter_u $end
     $var wire 32 4" BITWIDTH [31:0] $end
     $var wire  1 -" Clock $end
     $var wire 32 ` DataOut [31:0] $end
     $var wire  1 _ DataOut_vld $end
     $var wire 32 ^ Datain [31:0] $end
     $var wire 32 D" INPUTMAX [31:0] $end
     $var wire  1 ." Reset $end
     $var wire  1 ] Start $end
     $var wire 32 a result [31:0] $end
    $upscope $end
   $upscope $end
   $scope module genblk1[1] $end
    $scope module shifter_u $end
     $var wire 32 4" BITWIDTH [31:0] $end
     $var wire  1 -" Clock $end
     $var wire 32 e DataOut [31:0] $end
     $var wire  1 d DataOut_vld $end
     $var wire 32 c Datain [31:0] $end
     $var wire 32 D" INPUTMAX [31:0] $end
     $var wire  1 ." Reset $end
     $var wire  1 b Start $end
     $var wire 32 f result [31:0] $end
    $upscope $end
   $upscope $end
   $scope module genblk1[2] $end
    $scope module shifter_u $end
     $var wire 32 4" BITWIDTH [31:0] $end
     $var wire  1 -" Clock $end
     $var wire 32 j DataOut [31:0] $end
     $var wire  1 i DataOut_vld $end
     $var wire 32 h Datain [31:0] $end
     $var wire 32 D" INPUTMAX [31:0] $end
     $var wire  1 ." Reset $end
     $var wire  1 g Start $end
     $var wire 32 k result [31:0] $end
    $upscope $end
   $upscope $end
   $scope module genblk1[3] $end
    $scope module shifter_u $end
     $var wire 32 4" BITWIDTH [31:0] $end
     $var wire  1 -" Clock $end
     $var wire 32 o DataOut [31:0] $end
     $var wire  1 n DataOut_vld $end
     $var wire 32 m Datain [31:0] $end
     $var wire 32 D" INPUTMAX [31:0] $end
     $var wire  1 ." Reset $end
     $var wire  1 l Start $end
     $var wire 32 p result [31:0] $end
    $upscope $end
   $upscope $end
   $scope module genblk2[0] $end
    $scope module div $end
     $var wire 32 w a [31:0] $end
     $var wire 10 } a_e [9:0] $end
     $var wire 24 z a_m [23:0] $end
     $var wire  1 "! a_s $end
     $var wire 32 x b [31:0] $end
     $var wire 10 ~ b_e [9:0] $end
     $var wire 24 { b_m [23:0] $end
     $var wire  1 #! b_s $end
     $var wire  1 -" clk $end
     $var wire  6 0! count [5:0] $end
     $var wire  4 >" divide_0 [3:0] $end
     $var wire  4 ?" divide_1 [3:0] $end
     $var wire  4 @" divide_2 [3:0] $end
     $var wire  4 A" divide_3 [3:0] $end
     $var wire 51 ,! dividend [50:0] $end
     $var wire 51 *! divisor [50:0] $end
     $var wire  4 8" get_a [3:0] $end
     $var wire  4 9" get_b [3:0] $end
     $var wire  1 %! guard $end
     $var wire 32 q input_a [31:0] $end
     $var wire  1 r input_a_ack $end
     $var wire  1 B input_a_stb $end
     $var wire 32 / input_b [31:0] $end
     $var wire  1 s input_b_ack $end
     $var wire  1 C input_b_stb $end
     $var wire  4 B" normalise_1 [3:0] $end
     $var wire  4 C" normalise_2 [3:0] $end
     $var wire  4 <" normalise_a [3:0] $end
     $var wire  4 =" normalise_b [3:0] $end
     $var wire 32 t output_z [31:0] $end
     $var wire  1 D output_z_ack $end
     $var wire  1 u output_z_stb $end
     $var wire  4 F" pack [3:0] $end
     $var wire  4 G" put_z [3:0] $end
     $var wire 51 (! quotient [50:0] $end
     $var wire 51 .! remainder [50:0] $end
     $var wire  4 E" round [3:0] $end
     $var wire  1 &! round_bit $end
     $var wire  1 ." rst $end
     $var wire  1 r s_input_a_ack $end
     $var wire  1 s s_input_b_ack $end
     $var wire  1 u s_output_z_stb $end
     $var wire  4 ;" special_cases [3:0] $end
     $var wire  4 v state [3:0] $end
     $var wire  1 '! sticky $end
     $var wire  4 :" unpack [3:0] $end
     $var wire 32 y z [31:0] $end
     $var wire 10 !! z_e [9:0] $end
     $var wire 24 | z_m [23:0] $end
     $var wire  1 $! z_s $end
    $upscope $end
   $upscope $end
   $scope module genblk2[1] $end
    $scope module div $end
     $var wire 32 7! a [31:0] $end
     $var wire 10 =! a_e [9:0] $end
     $var wire 24 :! a_m [23:0] $end
     $var wire  1 @! a_s $end
     $var wire 32 8! b [31:0] $end
     $var wire 10 >! b_e [9:0] $end
     $var wire 24 ;! b_m [23:0] $end
     $var wire  1 A! b_s $end
     $var wire  1 -" clk $end
     $var wire  6 N! count [5:0] $end
     $var wire  4 >" divide_0 [3:0] $end
     $var wire  4 ?" divide_1 [3:0] $end
     $var wire  4 @" divide_2 [3:0] $end
     $var wire  4 A" divide_3 [3:0] $end
     $var wire 51 J! dividend [50:0] $end
     $var wire 51 H! divisor [50:0] $end
     $var wire  4 8" get_a [3:0] $end
     $var wire  4 9" get_b [3:0] $end
     $var wire  1 C! guard $end
     $var wire 32 1! input_a [31:0] $end
     $var wire  1 2! input_a_ack $end
     $var wire  1 B input_a_stb $end
     $var wire 32 / input_b [31:0] $end
     $var wire  1 3! input_b_ack $end
     $var wire  1 C input_b_stb $end
     $var wire  4 B" normalise_1 [3:0] $end
     $var wire  4 C" normalise_2 [3:0] $end
     $var wire  4 <" normalise_a [3:0] $end
     $var wire  4 =" normalise_b [3:0] $end
     $var wire 32 4! output_z [31:0] $end
     $var wire  1 D output_z_ack $end
     $var wire  1 5! output_z_stb $end
     $var wire  4 F" pack [3:0] $end
     $var wire  4 G" put_z [3:0] $end
     $var wire 51 F! quotient [50:0] $end
     $var wire 51 L! remainder [50:0] $end
     $var wire  4 E" round [3:0] $end
     $var wire  1 D! round_bit $end
     $var wire  1 ." rst $end
     $var wire  1 2! s_input_a_ack $end
     $var wire  1 3! s_input_b_ack $end
     $var wire  1 5! s_output_z_stb $end
     $var wire  4 ;" special_cases [3:0] $end
     $var wire  4 6! state [3:0] $end
     $var wire  1 E! sticky $end
     $var wire  4 :" unpack [3:0] $end
     $var wire 32 9! z [31:0] $end
     $var wire 10 ?! z_e [9:0] $end
     $var wire 24 <! z_m [23:0] $end
     $var wire  1 B! z_s $end
    $upscope $end
   $upscope $end
   $scope module genblk2[2] $end
    $scope module div $end
     $var wire 32 U! a [31:0] $end
     $var wire 10 [! a_e [9:0] $end
     $var wire 24 X! a_m [23:0] $end
     $var wire  1 ^! a_s $end
     $var wire 32 V! b [31:0] $end
     $var wire 10 \! b_e [9:0] $end
     $var wire 24 Y! b_m [23:0] $end
     $var wire  1 _! b_s $end
     $var wire  1 -" clk $end
     $var wire  6 l! count [5:0] $end
     $var wire  4 >" divide_0 [3:0] $end
     $var wire  4 ?" divide_1 [3:0] $end
     $var wire  4 @" divide_2 [3:0] $end
     $var wire  4 A" divide_3 [3:0] $end
     $var wire 51 h! dividend [50:0] $end
     $var wire 51 f! divisor [50:0] $end
     $var wire  4 8" get_a [3:0] $end
     $var wire  4 9" get_b [3:0] $end
     $var wire  1 a! guard $end
     $var wire 32 O! input_a [31:0] $end
     $var wire  1 P! input_a_ack $end
     $var wire  1 B input_a_stb $end
     $var wire 32 / input_b [31:0] $end
     $var wire  1 Q! input_b_ack $end
     $var wire  1 C input_b_stb $end
     $var wire  4 B" normalise_1 [3:0] $end
     $var wire  4 C" normalise_2 [3:0] $end
     $var wire  4 <" normalise_a [3:0] $end
     $var wire  4 =" normalise_b [3:0] $end
     $var wire 32 R! output_z [31:0] $end
     $var wire  1 D output_z_ack $end
     $var wire  1 S! output_z_stb $end
     $var wire  4 F" pack [3:0] $end
     $var wire  4 G" put_z [3:0] $end
     $var wire 51 d! quotient [50:0] $end
     $var wire 51 j! remainder [50:0] $end
     $var wire  4 E" round [3:0] $end
     $var wire  1 b! round_bit $end
     $var wire  1 ." rst $end
     $var wire  1 P! s_input_a_ack $end
     $var wire  1 Q! s_input_b_ack $end
     $var wire  1 S! s_output_z_stb $end
     $var wire  4 ;" special_cases [3:0] $end
     $var wire  4 T! state [3:0] $end
     $var wire  1 c! sticky $end
     $var wire  4 :" unpack [3:0] $end
     $var wire 32 W! z [31:0] $end
     $var wire 10 ]! z_e [9:0] $end
     $var wire 24 Z! z_m [23:0] $end
     $var wire  1 `! z_s $end
    $upscope $end
   $upscope $end
   $scope module genblk2[3] $end
    $scope module div $end
     $var wire 32 s! a [31:0] $end
     $var wire 10 y! a_e [9:0] $end
     $var wire 24 v! a_m [23:0] $end
     $var wire  1 |! a_s $end
     $var wire 32 t! b [31:0] $end
     $var wire 10 z! b_e [9:0] $end
     $var wire 24 w! b_m [23:0] $end
     $var wire  1 }! b_s $end
     $var wire  1 -" clk $end
     $var wire  6 ," count [5:0] $end
     $var wire  4 >" divide_0 [3:0] $end
     $var wire  4 ?" divide_1 [3:0] $end
     $var wire  4 @" divide_2 [3:0] $end
     $var wire  4 A" divide_3 [3:0] $end
     $var wire 51 (" dividend [50:0] $end
     $var wire 51 &" divisor [50:0] $end
     $var wire  4 8" get_a [3:0] $end
     $var wire  4 9" get_b [3:0] $end
     $var wire  1 !" guard $end
     $var wire 32 m! input_a [31:0] $end
     $var wire  1 n! input_a_ack $end
     $var wire  1 B input_a_stb $end
     $var wire 32 / input_b [31:0] $end
     $var wire  1 o! input_b_ack $end
     $var wire  1 C input_b_stb $end
     $var wire  4 B" normalise_1 [3:0] $end
     $var wire  4 C" normalise_2 [3:0] $end
     $var wire  4 <" normalise_a [3:0] $end
     $var wire  4 =" normalise_b [3:0] $end
     $var wire 32 p! output_z [31:0] $end
     $var wire  1 D output_z_ack $end
     $var wire  1 q! output_z_stb $end
     $var wire  4 F" pack [3:0] $end
     $var wire  4 G" put_z [3:0] $end
     $var wire 51 $" quotient [50:0] $end
     $var wire 51 *" remainder [50:0] $end
     $var wire  4 E" round [3:0] $end
     $var wire  1 "" round_bit $end
     $var wire  1 ." rst $end
     $var wire  1 n! s_input_a_ack $end
     $var wire  1 o! s_input_b_ack $end
     $var wire  1 q! s_output_z_stb $end
     $var wire  4 ;" special_cases [3:0] $end
     $var wire  4 r! state [3:0] $end
     $var wire  1 #" sticky $end
     $var wire  4 :" unpack [3:0] $end
     $var wire 32 u! z [31:0] $end
     $var wire 10 {! z_e [9:0] $end
     $var wire 24 x! z_m [23:0] $end
     $var wire  1 ~! z_s $end
    $upscope $end
   $upscope $end
  $upscope $end
 $upscope $end
$enddefinitions $end


#1
b00101010000101001111111111100100 #
b01111101011011111111001110110111 $
b11111100110001000111000101010011 %
b01101111100111100001011100100001 &
b10001010100110100111110111100001 '
b11011111100011001010111111000101 (
b00010010010100111111001110000010 )
b10100100010100011111111101100010 *
b01110011010110000001011000110101 +
b10101101111110111100100100010010 ,
b01100010111110011010101101010110 -
b10110100001100100011101111111101 .
b11011100011010110100000111110100 /
b00000110101011011111010100111011 0
b11000110011011010100110101011000 1
b1110 2
b01110001111100101001000010111011 3
b10111101000010110010111011100010 4
b11101111111111000001101100011111 5
b11111111100111001011110011100011 6
b10000001101011011010111110000100 7
b01011111000100000011011011000101 8
b01111001001000011010011000110011 9
b11011111011100101110101001001011 :
b1100 ;
0<
1=
1>
1?
1@
0A
0B
1C
0D
b0101 E
b0000 F
b0111 G
b111 H
b110 I
b000 J
b111 K
b1101 L
b00011011101110010110010111001010 M
b01111100010010011101010101011101 N
b10101110011000010011010001000111 O
b011111001011110110100100100 P
b011010010011011001011101111 Q
b010101001011010010101001 R
b0101101101 S
b1100111001 T
b1001111000 U
0V
0W
0X
0Y
1Z
1[
b0111000010000100001110110011 \
0]
b00101010000101001111111111100100 ^
0_
b01110001111100101001000010111011 `
b00110001100000000000000000000000 a
1b
b01111101011011111111001110110111 c
0d
b10111101000010110010111011100010 e
b00011011000000000000000000000000 f
1g
b11111100110001000111000101010011 h
1i
b11101111111111000001101100011111 j
b11101001000000000000000000000000 k
1l
b01101111100111100001011100100001 m
1n
b11111111100111001011110011100011 o
b11010000000000000000000000000000 p
b10001010100110100111110111100001 q
1r
0s
b10000001101011011010111110000100 t
1u
b1111 v
b00011111111111111011001100000101 w
b00100000101110001001010111010111 x
b00101111110110100000010010001001 y
b110010000100001011110110 z
b010110001001111110101111 {
b111110011111010111101111 |
b1110011101 }
b1100111111 ~
b1011001111 !!
0"!
1#!
0$!
1%!
1&!
1'!
b101001001101111011110001000111100111011100110001100 (!
b001100011100101111000010001110110101011001100000010 *!
b001101111110011110111001010100101110010101111111011 ,!
b000110001101100011010011111001000000001010111101000 .!
b000010 0!
b11011111100011001010111111000101 1!
02!
03!
b01011111000100000011011011000101 4!
15!
b0001 6!
b10100001100100010011101011100101 7!
b00000101111010011101110100100001 8!
b10010000110000000010011111110011 9!
b011100010000010001011001 :!
b011010010001100011110101 ;!
b000100000001011010111101 <!
b1101111110 =!
b1001100010 >!
b1111001010 ?!
0@!
1A!
0B!
0C!
0D!
1E!
b001100001101001011110010011011011111000110011111100 F!
b100111011011101001100010011010100011100000100111101 H!
b111110011100100111110010101110011111010010001101100 J!
b000100000110111010001000000110011010101001100001110 L!
b100111 N!
b00010010010100111111001110000010 O!
1P!
0Q!
b01111001001000011010011000110011 R!
1S!
b0011 T!
b11100000011000010001001100011100 U!
b11011010110001110001101010110110 V!
b11101101110000011110001011010111 W!
b011101001110010100111010 X!
b000000110100101001100111 Y!
b010001011111011001010011 Z!
b1010000100 [!
b0011110100 \!
b1011100100 ]!
0^!
1_!
1`!
0a!
0b!
1c!
b011010111111101111100010101100110101001011110001010 d!
b000010100101101111110010001101011110100011100111101 f!
b001100111001111100000000100110001100111000001111111 h!
b111100001011100111110011011100110000011100101011011 j!
b011100 l!
b10100100010100011111111101100010 m!
0n!
0o!
b11011111011100101110101001001011 p!
0q!
b1001 r!
b11101011111001111101100100000100 s!
b11110011100000000100100011010100 t!
b01111101000000101100100100110100 u!
b110011010111011010111101 v!
b101000100101101100011011 w!
b110111010001001100000010 x!
b0101110001 y!
b1001010011 z!
b0001100011 {!
0|!
0}!
0~!
1!"
0""
1#"
b011001010111100101011010111001110111010101110000000 $"
b100110001101110111000111010000110000111100101100001 &"
b001110110011100000000101110010100111111111101100001 ("
b001000111001100101011100010111001001100001001010111 *"
b010010 ,"
1-"
0."
0/"
b00000000000000000000000000000000 0"
b011 1"
b10111011110101011000111010111100 2"
03"
b00000000000000000000000000100000 4"
b00000000000000000000000000000010 5"
b11101001110011110000010010110010 6"
b01010110110100010000100001011100 7"
b0000 8"
b0001 9"
b0010 :"
b0011 ;"
b0100 <"
b0101 ="
b0110 >"
b0111 ?"
b1000 @"
b1001 A"
b1010 B"
b1011 C"
b00000000000000000000000000000101 D"
b1100 E"
b1101 F"
b1110 G"
#2
0-"
1."
#3
b00000000000000000000000000000000 #
b00000000000000000000000000000000 $
b00000000000000000000000000000000 %
b00000000000000000000000000000000 &
b00000000000000000000000000000000 '
b00000000000000000000000000000000 (
b00000000000000000000000000000000 )
b00000000000000000000000000000000 *
b00000000000000000000000000000000 +
b00000000000000000000000000000000 ,
b00000000000000000000000000000000 -
b00000000000000000000000000000000 .
b00000000000000000000000000000000 /
b00000000000000000000000000000000 0
b00000000000000000000000000000000 1
b0000 2
b00000000000000000000000000000000 3
b00000000000000000000000000000000 4
b00000000000000000000000000000000 5
b00000000000000000000000000000000 6
b00000000000000000000000000000000 7
b00000000000000000000000000000000 8
b00000000000000000000000000000000 9
b00000000000000000000000000000000 :
b0000 ;
0=
0>
0?
0@
0C
b0000 E
b0000 G
b000 H
b000 I
b000 K
b0000 L
b00000000000000000000000000000000 M
b00000000000000000000000000000000 N
b00000000000000000000000000000000 O
b000000000000000000000000000 P
b000000000000000000000000000 Q
b000000000000000000000000 R
b0000000000 S
b0000000000 T
b00000000000000000000000000000000 ^
b00000000000000000000000000000000 `
b00111111100000000000000000000000 a
0b
b00000000000000000000000000000000 c
b00000000000000000000000000000000 e
b00111111100000000000000000000000 f
0g
b00000000000000000000000000000000 h
0i
b00000000000000000000000000000000 j
b00111111100000000000000000000000 k
0l
b00000000000000000000000000000000 m
0n
b00000000000000000000000000000000 o
b00111111100000000000000000000000 p
b00000000000000000000000000000000 q
0r
b00000000000000000000000000000000 t
0u
b0000 v
b00000000000000000000000000000000 w
b00000000000000000000000000000000 x
b00000000000000000000000000000000 y
b000000000000000000000000 z
b000000000000000000000000 {
b000000000000000000000000 |
b0000000000 }
b0000000000 ~
b00000000000000000000000000000000 1!
b00000000000000000000000000000000 4!
05!
b0000 6!
b00000000000000000000000000000000 7!
b00000000000000000000000000000000 8!
b00000000000000000000000000000000 9!
b000000000000000000000000 :!
b000000000000000000000000 ;!
b000000000000000000000000 <!
b0000000000 =!
b0000000000 >!
b00000000000000000000000000000000 O!
0P!
b00000000000000000000000000000000 R!
0S!
b0000 T!
b00000000000000000000000000000000 U!
b00000000000000000000000000000000 V!
b00000000000000000000000000000000 W!
b000000000000000000000000 X!
b000000000000000000000000 Y!
b000000000000000000000000 Z!
b0000000000 [!
b0000000000 \!
b00000000000000000000000000000000 m!
b00000000000000000000000000000000 p!
b0000 r!
b00000000000000000000000000000000 s!
b00000000000000000000000000000000 t!
b00000000000000000000000000000000 u!
b000000000000000000000000 v!
b000000000000000000000000 w!
b000000000000000000000000 x!
b0000000000 y!
b0000000000 z!
1-"
b00000000000000000000000000000000 2"
#4
0-"
#5
1-"
#6
0-"
#7
1-"
#8
0-"
#9
1-"
#10
0-"
0."
1/"
#11
1?
b1111 E
b001 K
1r
12!
1P!
1n!
1-"
#12
0-"
b00000000000000000000000000000010 0"
#13
b00000000000000000000000000000010 #
b001 H
b00000000000000000000000000000010 ^
b01000000100000000000000000000000 a
1-"
#14
0-"
#15
b00000000000000000000000000000010 $
b010 H
b00000000000000000000000000000010 c
b01000000100000000000000000000000 f
1-"
#16
0-"
#17
b00000000000000000000000000000010 %
b011 H
b00000000000000000000000000000010 h
b01000000100000000000000000000000 k
1-"
#18
0-"
#19
b00000000000000000000000000000010 &
b100 H
b00000000000000000000000000000010 m
b01000000100000000000000000000000 p
1-"
#20
0-"
0/"
#21
b1111 2
b010 K
1]
1b
1g
1l
1-"
#22
0-"
#23
b01000000100000000000000000000000 3
b01000000100000000000000000000000 4
b01000000100000000000000000000000 5
b01000000100000000000000000000000 6
b1111 ;
1_
b01000000100000000000000000000000 `
1d
b01000000100000000000000000000000 e
1i
b01000000100000000000000000000000 j
1n
b01000000100000000000000000000000 o
1-"
#24
0-"
#25
b01000000100000000000000000000000 '
b01000000100000000000000000000000 (
b01000000100000000000000000000000 )
b01000000100000000000000000000000 *
1<
1=
1>
b011 K
b01000000100000000000000000000000 q
b01000000100000000000000000000000 1!
b01000000100000000000000000000000 O!
b01000000100000000000000000000000 m!
1-"
#26
0-"
#27
b01000000100000000000000000000000 0
0?
b001 J
b0001 L
1-"
#28
0-"
#29
1@
1-"
#30
0-"
#31
0@
b010 J
b0010 L
1-"
#32
0-"
#33
b0011 L
b1110000001 S
b1110000001 T
1-"
#34
0-"
#35
b1011 L
1-"
#36
0-"
#37
1A
1-"
#38
0-"
#39
0A
b011 J
b0000 L
1-"
#40
0-"
#41
1?
1-"
#42
0-"
#43
0?
b100 J
b0001 L
b01000000100000000000000000000000 M
1-"
#44
0-"
#45
1@
b001 I
b000 J
1-"
#46
0-"
#47
0@
b001 J
b0010 L
1-"
#48
0-"
#49
b0011 L
b0000000010 S
1-"
#50
0-"
#51
b1011 L
b01000000100000000000000000000000 O
1-"
#52
0-"
#53
b01000000100000000000000000000000 1
1A
1-"
#54
0-"
#55
0A
b010 J
b0000 L
1-"
#56
0-"
#57
1?
1-"
#58
0-"
#59
0?
b011 J
b0001 L
1-"
#60
0-"
#61
1@
1-"
#62
0-"
#63
0@
b100 J
b0010 L
1-"
#64
0-"
#65
b01000000100000000000000000000000 /
b010 I
b000 J
b0011 L
1-"
#66
0-"
#67
b1011 L
1-"
#68
0-"
#69
1A
1-"
#70
0-"
#71
0A
b001 J
b0000 L
1-"
#72
0-"
#73
1?
1-"
#74
0-"
#75
0?
b010 J
b0001 L
1-"
#76
0-"
#77
1@
1-"
#78
0-"
#79
0@
b011 J
b0010 L
b01000000100000000000000000000000 N
1-"
#80
0-"
#81
b0011 L
b0000000010 T
1-"
#82
0-"
#83
b0100 L
b100000000000000000000000000 P
b100000000000000000000000000 Q
1-"
#84
0-"
#85
b0101 L
1-"
#86
0-"
#87
b0110 L
b0000000010 U
b1000000000000000000000000000 \
1-"
#88
0-"
#89
b0111 L
b100000000000000000000000 R
b0000000011 U
0Z
0[
1-"
#90
0-"
#91
b1000 L
1-"
#92
0-"
#93
b1001 L
1-"
#94
0-"
#95
b1010 L
1-"
#96
0-"
#97
b1011 L
b01000001000000000000000000000000 O
1-"
#98
0-"
#99
b01000001000000000000000000000000 1
1A
1-"
#100
0-"
#101
0A
b100 J
b0000 L
1-"
#102
0-"
#103
b01000001000000000000000000000000 /
1?
b011 I
b000 J
1-"
#104
0-"
#105
0?
b001 J
b0001 L
1-"
#106
0-"
#107
1@
1-"
#108
0-"
#109
0@
b010 J
b0010 L
b01000001000000000000000000000000 N
1-"
#110
0-"
#111
b0011 L
b000000000000000000000000000 P
b000000000000000000000000000 Q
b0000000011 T
1-"
#112
0-"
#113
b0100 L
b100000000000000000000000000 P
b100000000000000000000000000 Q
1-"
#114
0-"
#115
b010000000000000000000000000 P
b0000000011 S
1-"
#116
0-"
#117
b0101 L
1-"
#118
0-"
#119
b0110 L
b0110000000000000000000000000 \
1-"
#120
0-"
#121
b0111 L
b110000000000000000000000 R
1-"
#122
0-"
#123
b1000 L
1-"
#124
0-"
#125
b1001 L
1-"
#126
0-"
#127
b1010 L
1-"
#128
0-"
#129
b1011 L
b01000001010000000000000000000000 O
1-"
#130
0-"
#131
b01000001010000000000000000000000 1
1A
1-"
#132
0-"
#133
0A
b011 J
b0000 L
1-"
#134
0-"
#135
1?
1-"
#136
0-"
#137
0?
b100 J
b0001 L
1-"
#138
0-"
#139
b01000001010000000000000000000000 /
1@
b100 I
b000 J
1-"
#140
0-"
#141
0@
b001 J
b0010 L
b01000001010000000000000000000000 N
1-"
#142
0-"
#143
b0011 L
b000000000000000000000000000 P
b010000000000000000000000000 Q
b0000000010 S
1-"
#144
0-"
#145
b0100 L
b100000000000000000000000000 P
b110000000000000000000000000 Q
1-"
#146
0-"
#147
b010000000000000000000000000 P
b0000000011 S
1-"
#148
0-"
#149
b0101 L
1-"
#150
0-"
#151
b0110 L
b1000000000000000000000000000 \
1-"
#152
0-"
#153
b0111 L
b100000000000000000000000 R
b0000000100 U
1-"
#154
0-"
#155
b1000 L
1-"
#156
0-"
#157
b1001 L
1-"
#158
0-"
#159
b1010 L
1-"
#160
0-"
#161
b1011 L
b01000001100000000000000000000000 O
1-"
#162
0-"
#163
b01000001100000000000000000000000 1
1A
1-"
#164
0-"
#165
0A
b010 J
b0000 L
1-"
#166
0-"
#167
1?
1-"
#168
0-"
#169
0?
b011 J
b0001 L
1-"
#170
0-"
#171
1@
1-"
#172
0-"
#173
0@
b100 J
b0010 L
1-"
#174
0-"
#175
b01000001100000000000000000000000 /
b101 I
b000 J
b0011 L
b000000000000000000000000000 P
b010000000000000000000000000 Q
b0000000010 S
1-"
#176
0-"
#177
b100 K
b0100 L
b100000000000000000000000000 P
b110000000000000000000000000 Q
1-"
#178
0-"
#179
1B
1C
b010000000000000000000000000 P
b0000000011 S
1-"
#180
0-"
#181
b0000 E
b0101 L
0r
b0001 v
b01000000100000000000000000000000 w
02!
b0001 6!
b01000000100000000000000000000000 7!
0P!
b0001 T!
b01000000100000000000000000000000 U!
0n!
b0001 r!
b01000000100000000000000000000000 s!
1-"
#182
0-"
#183
b1111 F
b0110 L
b0000000011 U
1s
13!
1Q!
1o!
1-"
#184
0-"
#185
b0000 F
b0111 L
b0000000100 U
0s
b0010 v
b01000001100000000000000000000000 x
03!
b0010 6!
b01000001100000000000000000000000 8!
0Q!
b0010 T!
b01000001100000000000000000000000 V!
0o!
b0010 r!
b01000001100000000000000000000000 t!
1-"
#186
0-"
#187
b1000 L
b0011 v
b0000000010 }
b0000000100 ~
0#!
b0011 6!
b0000000010 =!
b0000000100 >!
0A!
b0011 T!
b0000000010 [!
b0000000100 \!
0_!
b0011 r!
b0000000010 y!
b0000000100 z!
1-"
#188
0-"
#189
b1001 L
b0100 v
b100000000000000000000000 z
b100000000000000000000000 {
b0100 6!
b100000000000000000000000 :!
b100000000000000000000000 ;!
b0100 T!
b100000000000000000000000 X!
b100000000000000000000000 Y!
b0100 r!
b100000000000000000000000 v!
b100000000000000000000000 w!
1-"
#190
0-"
#191
b1010 L
b0101 v
b0101 6!
b0101 T!
b0101 r!
1-"
#192
0-"
#193
b1011 L
b0110 v
b0110 6!
b0110 T!
b0110 r!
1-"
#194
0-"
